8x8_Router/RTL_results.txt
/*--- RTL RESULTS ---*/

STARTING SMOKE TEST!!!!
                 155: Testbench: Sending packet from 0 to 7, Data = deadbeef
Sending packet @  235 [sa=0] [da=7] data=deadbeef
                 615: -- PORTIN COMPLETE -- Portin: Address = 7, Payload = deadbeef, Valid = 0
                 625: FIFO Write: Data = deadbeef, Write Ptr =  0, Count =  0
                 965: FIFO Read: Data = 00000000, Read Ptr =  0, Count =  1
                 975: Switch Routing: From Input           0 to Address 7, Data = deadbeef, Latched Data = 00000000, Valido_n = 1
                 995: Portout: Din = deadbeef
                1315: Portout: Serialization of deadbeef completed.
Received deadbeef @ 1335 and match found  
$finish called from file "testbench.sv", line 123.

*******************End of Simulation Report*******************

Number of Errors =           0
Number of unmatched packets =           0
Port  0 [transmitted=  1] [received=  0] [expected=  0]
Port  1 [transmitted=  0] [received=  0] [expected=  0]
Port  2 [transmitted=  0] [received=  0] [expected=  0]
Port  3 [transmitted=  0] [received=  0] [expected=  0]
Port  4 [transmitted=  0] [received=  0] [expected=  0]
Port  5 [transmitted=  0] [received=  0] [expected=  0]
Port  6 [transmitted=  0] [received=  0] [expected=  0]
Port  7 [transmitted=  0] [received=  1] [expected=  1]
$finish at simulation time                10705

----

STARTING 1-PORT TEST!!!!
                 155: Testbench: Sending packet from 0 to 0, Data = 12341234
Sending packet @  235 [sa=0] [da=0] data=12341234
                 615: -- PORTIN COMPLETE -- Portin: Address = 0, Payload = 12341234, Valid = 0
                 625: FIFO Write: Data = 12341234, Write Ptr =  0, Count =  0
                 705: Testbench: Sending packet from 0 to 1, Data = deadbeef
Sending packet @  705 [sa=0] [da=1] data=deadbeef
                 965: FIFO Read: Data = 00000000, Read Ptr =  0, Count =  1
                 975: Switch Routing: From Input           0 to Address 1, Data = 12341234, Latched Data = 00000000, Valido_n = 1
                 995: Portout: Din = 12341234
                1085: -- PORTIN COMPLETE -- Portin: Address = 1, Payload = deadbeef, Valid = 0
                1095: FIFO Write: Data = deadbeef, Write Ptr =  1, Count =  0
                1175: Testbench: Sending packet from 0 to 2, Data = 9876abcd
Sending packet @ 1175 [sa=0] [da=2] data=9876abcd
                1315: Portout: Serialization of 12341234 completed.
Received 12341234 @ 1335 and match found  
                1435: FIFO Read: Data = 12341234, Read Ptr =  1, Count =  1
                1445: Switch Routing: From Input           0 to Address 2, Data = deadbeef, Latched Data = 12341234, Valido_n = 1
                1465: Portout: Din = deadbeef
                1555: -- PORTIN COMPLETE -- Portin: Address = 2, Payload = 9876abcd, Valid = 0
                1565: FIFO Write: Data = 9876abcd, Write Ptr =  2, Count =  0
                1645: Testbench: Sending packet from 0 to 3, Data = 55555555
Sending packet @ 1645 [sa=0] [da=3] data=55555555
                1785: Portout: Serialization of deadbeef completed.
Received deadbeef @ 1805 and match found  
                1905: FIFO Read: Data = deadbeef, Read Ptr =  2, Count =  1
                1915: Switch Routing: From Input           0 to Address 3, Data = 9876abcd, Latched Data = deadbeef, Valido_n = 1
                1935: Portout: Din = 9876abcd
                2025: -- PORTIN COMPLETE -- Portin: Address = 3, Payload = 55555555, Valid = 0
                2035: FIFO Write: Data = 55555555, Write Ptr =  3, Count =  0
                2115: Testbench: Sending packet from 0 to 4, Data = cafecafe
                2255: Portout: Serialization of 9876abcd completed.
Received 9876abcd @ 2275 and match found  
Sending packet @ 2285 [sa=0] [da=4] data=cafecafe
                2375: FIFO Read: Data = 9876abcd, Read Ptr =  3, Count =  1
                2385: Switch Routing: From Input           0 to Address 4, Data = 55555555, Latched Data = 9876abcd, Valido_n = 1
                2405: Portout: Din = 55555555
                2665: -- PORTIN COMPLETE -- Portin: Address = 4, Payload = cafecafe, Valid = 0
                2675: FIFO Write: Data = cafecafe, Write Ptr =  4, Count =  0
                2725: Portout: Serialization of 55555555 completed.
Received 55555555 @ 2745 and match found  
                2755: Testbench: Sending packet from 0 to 5, Data = abcddcba
Sending packet @ 2925 [sa=0] [da=5] data=abcddcba
                3015: FIFO Read: Data = 55555555, Read Ptr =  4, Count =  1
                3025: Switch Routing: From Input           0 to Address 5, Data = cafecafe, Latched Data = 55555555, Valido_n = 1
                3045: Portout: Din = cafecafe
                3305: -- PORTIN COMPLETE -- Portin: Address = 5, Payload = abcddcba, Valid = 0
                3315: FIFO Write: Data = abcddcba, Write Ptr =  5, Count =  0
                3365: Portout: Serialization of cafecafe completed.
Received cafecafe @ 3385 and match found  
                3395: Testbench: Sending packet from 0 to 6, Data = 54555050
Sending packet @ 3395 [sa=0] [da=6] data=54555050
                3655: FIFO Read: Data = cafecafe, Read Ptr =  5, Count =  1
                3665: Switch Routing: From Input           0 to Address 6, Data = abcddcba, Latched Data = cafecafe, Valido_n = 1
                3685: Portout: Din = abcddcba
                3775: -- PORTIN COMPLETE -- Portin: Address = 6, Payload = 54555050, Valid = 0
                3785: FIFO Write: Data = 54555050, Write Ptr =  6, Count =  0
                3865: Testbench: Sending packet from 0 to 7, Data = 00001111
Sending packet @ 3865 [sa=0] [da=7] data=00001111
                4005: Portout: Serialization of abcddcba completed.
Received abcddcba @ 4025 and match found  
                4125: FIFO Read: Data = abcddcba, Read Ptr =  6, Count =  1
                4135: Switch Routing: From Input           0 to Address 7, Data = 54555050, Latched Data = abcddcba, Valido_n = 1
                4155: Portout: Din = 54555050
                4245: -- PORTIN COMPLETE -- Portin: Address = 7, Payload = 00001111, Valid = 0
                4255: FIFO Write: Data = 00001111, Write Ptr =  7, Count =  0
                4475: Portout: Serialization of 54555050 completed.
Received 54555050 @ 4495 and match found  
                4595: FIFO Read: Data = 54555050, Read Ptr =  7, Count =  1
                4605: Switch Routing: From Input           0 to Address 7, Data = 00001111, Latched Data = 54555050, Valido_n = 1
                4625: Portout: Din = 00001111
                4945: Portout: Serialization of 00001111 completed.
Received 00001111 @ 4965 and match found  
$finish called from file "testbench.sv", line 123.

*******************End of Simulation Report*******************

Number of Errors =           0
Number of unmatched packets =           0
Port  0 [transmitted=  8] [received=  0] [expected=  1]
Port  1 [transmitted=  0] [received=  1] [expected=  1]
Port  2 [transmitted=  0] [received=  1] [expected=  1]
Port  3 [transmitted=  0] [received=  1] [expected=  1]
Port  4 [transmitted=  0] [received=  1] [expected=  1]
Port  5 [transmitted=  0] [received=  1] [expected=  1]
Port  6 [transmitted=  0] [received=  1] [expected=  1]
Port  7 [transmitted=  0] [received=  2] [expected=  1]

----

STARTING 4-PORT TEST!!!!
                 155: Testbench: Sending packet from 0 to 3, Data = 12153524
Sending packet @  155 [sa=0] [da=3] data=12153524
                 155: Testbench: Sending packet from 1 to 2, Data = 8484d609
Sending packet @  155 [sa=1] [da=2] data=8484d609
                 155: Testbench: Sending packet from 2 to 1, Data = 06b97b0d
                 155: Testbench: Sending packet from 3 to 0, Data = b2c28465
Sending packet @  155 [sa=3] [da=0] data=b2c28465
Sending packet @  325 [sa=2] [da=1] data=06b97b0d
                 535: -- PORTIN COMPLETE -- Portin: Address = 3, Payload = 12153524, Valid = 0
                 535: -- PORTIN COMPLETE -- Portin: Address = 2, Payload = 8484d609, Valid = 0
                 535: -- PORTIN COMPLETE -- Portin: Address = 0, Payload = b2c28465, Valid = 0
                 545: FIFO Write: Data = 12153524, Write Ptr =  0, Count =  0
                 545: FIFO Write: Data = 8484d609, Write Ptr =  0, Count =  0
                 545: FIFO Write: Data = b2c28465, Write Ptr =  0, Count =  0
                 625: Testbench: Sending packet from 3 to 0, Data = 00f3e301
                 625: Testbench: Sending packet from 1 to 2, Data = 3b23f176
                 625: Testbench: Sending packet from 0 to 3, Data = 76d457ed
                 705: -- PORTIN COMPLETE -- Portin: Address = 1, Payload = 06b97b0d, Valid = 0
Sending packet @  715 [sa=3] [da=0] data=00f3e301
                 715: FIFO Write: Data = 06b97b0d, Write Ptr =  0, Count =  0
Sending packet @  745 [sa=0] [da=3] data=76d457ed
Sending packet @  795 [sa=1] [da=2] data=3b23f176
                 795: Testbench: Sending packet from 2 to 1, Data = 7cfde9f9
Sending packet @  795 [sa=2] [da=1] data=7cfde9f9
                 885: FIFO Read: Data = 00000000, Read Ptr =  0, Count =  1
                 885: FIFO Read: Data = 00000000, Read Ptr =  0, Count =  1
                 885: FIFO Read: Data = 00000000, Read Ptr =  0, Count =  1
                 895: Switch Routing: From Input           0 to Address 3, Data = 12153524, Latched Data = 00000000, Valido_n = 1
                 895: Switch Routing: From Input           1 to Address 2, Data = 8484d609, Latched Data = 00000000, Valido_n = 1
                 895: Switch Routing: From Input           3 to Address 0, Data = b2c28465, Latched Data = 00000000, Valido_n = 1
                 915: Portout: Din = b2c28465
                 915: Portout: Din = 8484d609
                 915: Portout: Din = 12153524
                1095: -- PORTIN COMPLETE -- Portin: Address = 0, Payload = 00f3e301, Valid = 0
                1105: FIFO Write: Data = 00f3e301, Write Ptr =  1, Count =  0
                1125: -- PORTIN COMPLETE -- Portin: Address = 3, Payload = 76d457ed, Valid = 0
                1135: FIFO Write: Data = 76d457ed, Write Ptr =  1, Count =  0
                1175: -- PORTIN COMPLETE -- Portin: Address = 2, Payload = 3b23f176, Valid = 0
                1175: -- PORTIN COMPLETE -- Portin: Address = 1, Payload = 7cfde9f9, Valid = 0
                1185: Testbench: Sending packet from 3 to 0, Data = e2f784c5
Sending packet @ 1185 [sa=3] [da=0] data=e2f784c5
                1185: FIFO Write: Data = 3b23f176, Write Ptr =  1, Count =  0
                1185: FIFO Write: Data = 7cfde9f9, Write Ptr =  1, Count =  1
                1215: Testbench: Sending packet from 0 to 3, Data = 72aff7e5
Sending packet @ 1215 [sa=0] [da=3] data=72aff7e5
                1235: Portout: Serialization of b2c28465 completed.
                1235: Portout: Serialization of 8484d609 completed.
                1235: Portout: Serialization of 12153524 completed.
Received b2c28465 @ 1255 and match found  
Received 8484d609 @ 1255 and match found  
Received 12153524 @ 1255 and match found  
                1265: Testbench: Sending packet from 2 to 1, Data = 8932d612
                1265: Testbench: Sending packet from 1 to 2, Data = 793069f2
Sending packet @ 1265 [sa=1] [da=2] data=793069f2
                1445: FIFO Read: Data = b2c28465, Read Ptr =  1, Count =  1
Sending packet @ 1455 [sa=2] [da=1] data=8932d612
                1455: Switch Routing: From Input           3 to Address 0, Data = 00f3e301, Latched Data = b2c28465, Valido_n = 1
                1475: FIFO Read: Data = 12153524, Read Ptr =  1, Count =  1
                1475: Portout: Din = 00f3e301
                1485: Switch Routing: From Input           0 to Address 3, Data = 76d457ed, Latched Data = 12153524, Valido_n = 1
                1505: Portout: Din = 76d457ed
                1525: FIFO Read: Data = 8484d609, Read Ptr =  1, Count =  1
                1535: Switch Routing: From Input           1 to Address 2, Data = 3b23f176, Latched Data = 8484d609, Valido_n = 1
                1555: Portout: Din = 3b23f176
                1565: -- PORTIN COMPLETE -- Portin: Address = 0, Payload = e2f784c5, Valid = 0
                1575: FIFO Write: Data = e2f784c5, Write Ptr =  2, Count =  0
                1595: -- PORTIN COMPLETE -- Portin: Address = 3, Payload = 72aff7e5, Valid = 0
                1605: FIFO Write: Data = 72aff7e5, Write Ptr =  2, Count =  0
                1645: -- PORTIN COMPLETE -- Portin: Address = 2, Payload = 793069f2, Valid = 0
                1655: Testbench: Sending packet from 3 to 0, Data = f4007ae8
Sending packet @ 1655 [sa=3] [da=0] data=f4007ae8
                1655: FIFO Write: Data = 793069f2, Write Ptr =  2, Count =  0
                1685: Testbench: Sending packet from 0 to 3, Data = 2e58495c
Sending packet @ 1685 [sa=0] [da=3] data=2e58495c
                1735: Testbench: Sending packet from 1 to 2, Data = 96ab582d
Sending packet @ 1735 [sa=1] [da=2] data=96ab582d
                1795: Portout: Serialization of 00f3e301 completed.
Received 00f3e301 @ 1815 and match found  
                1825: Portout: Serialization of 76d457ed completed.
                1835: -- PORTIN COMPLETE -- Portin: Address = 1, Payload = 8932d612, Valid = 0
Received 76d457ed @ 1845 and match found  
                1845: FIFO Write: Data = 8932d612, Write Ptr =  2, Count =  2
                1875: Portout: Serialization of 3b23f176 completed.
Received 3b23f176 @ 1895 and match found  
                1915: FIFO Read: Data = 00f3e301, Read Ptr =  2, Count =  1
                1925: Testbench: Sending packet from 2 to 1, Data = b1ef6263
                1925: Switch Routing: From Input           3 to Address 0, Data = e2f784c5, Latched Data = 00f3e301, Valido_n = 1
                1945: FIFO Read: Data = 76d457ed, Read Ptr =  2, Count =  1
                1945: Portout: Din = e2f784c5
                1955: Switch Routing: From Input           0 to Address 3, Data = 72aff7e5, Latched Data = 76d457ed, Valido_n = 1
                1975: Portout: Din = 72aff7e5
                1995: FIFO Read: Data = 3b23f176, Read Ptr =  2, Count =  1
                2005: Switch Routing: From Input           1 to Address 2, Data = 793069f2, Latched Data = 3b23f176, Valido_n = 1
Sending packet @ 2025 [sa=2] [da=1] data=b1ef6263
                2025: Portout: Din = 793069f2
                2035: -- PORTIN COMPLETE -- Portin: Address = 0, Payload = f4007ae8, Valid = 0
                2045: FIFO Write: Data = f4007ae8, Write Ptr =  3, Count =  0
                2065: -- PORTIN COMPLETE -- Portin: Address = 3, Payload = 2e58495c, Valid = 0
                2075: FIFO Write: Data = 2e58495c, Write Ptr =  3, Count =  0
                2115: -- PORTIN COMPLETE -- Portin: Address = 2, Payload = 96ab582d, Valid = 0
                2125: Testbench: Sending packet from 3 to 0, Data = c03b2280
                2125: FIFO Write: Data = 96ab582d, Write Ptr =  3, Count =  0
                2155: Testbench: Sending packet from 0 to 3, Data = 557845aa
Sending packet @ 2155 [sa=0] [da=3] data=557845aa
                2205: Testbench: Sending packet from 1 to 2, Data = cb203e96
Sending packet @ 2205 [sa=1] [da=2] data=cb203e96
                2265: Portout: Serialization of e2f784c5 completed.
Sending packet @ 2285 [sa=3] [da=0] data=c03b2280
Received e2f784c5 @ 2285 and match found  
                2295: Portout: Serialization of 72aff7e5 completed.
Received 72aff7e5 @ 2315 and match found  
                2345: Portout: Serialization of 793069f2 completed.
Received 793069f2 @ 2365 and match found  
                2385: FIFO Read: Data = e2f784c5, Read Ptr =  3, Count =  1
                2395: Switch Routing: From Input           3 to Address 0, Data = f4007ae8, Latched Data = e2f784c5, Valido_n = 1
                2405: -- PORTIN COMPLETE -- Portin: Address = 1, Payload = b1ef6263, Valid = 0
                2415: FIFO Read: Data = 72aff7e5, Read Ptr =  3, Count =  1
                2415: Portout: Din = f4007ae8
                2415: FIFO Write: Data = b1ef6263, Write Ptr =  3, Count =  3
                2425: Switch Routing: From Input           0 to Address 3, Data = 2e58495c, Latched Data = 72aff7e5, Valido_n = 1
                2445: Portout: Din = 2e58495c
                2465: FIFO Read: Data = 793069f2, Read Ptr =  3, Count =  1
                2475: Switch Routing: From Input           1 to Address 2, Data = 96ab582d, Latched Data = 793069f2, Valido_n = 1
                2495: Testbench: Sending packet from 2 to 1, Data = 86bc380d
Sending packet @ 2495 [sa=2] [da=1] data=86bc380d
                2495: Portout: Din = 96ab582d
                2535: -- PORTIN COMPLETE -- Portin: Address = 3, Payload = 557845aa, Valid = 0
                2545: FIFO Write: Data = 557845aa, Write Ptr =  4, Count =  0
                2585: -- PORTIN COMPLETE -- Portin: Address = 2, Payload = cb203e96, Valid = 0
                2595: FIFO Write: Data = cb203e96, Write Ptr =  4, Count =  0
                2625: Testbench: Sending packet from 0 to 3, Data = 359fdd6b
Sending packet @ 2625 [sa=0] [da=3] data=359fdd6b
                2665: -- PORTIN COMPLETE -- Portin: Address = 0, Payload = c03b2280, Valid = 0
                2675: Testbench: Sending packet from 1 to 2, Data = 81174a02
Sending packet @ 2675 [sa=1] [da=2] data=81174a02
                2675: FIFO Write: Data = c03b2280, Write Ptr =  4, Count =  0
                2735: Portout: Serialization of f4007ae8 completed.
                2755: Testbench: Sending packet from 3 to 0, Data = 0effe91d
Sending packet @ 2755 [sa=3] [da=0] data=0effe91d
Received f4007ae8 @ 2755 and match found  
                2765: Portout: Serialization of 2e58495c completed.
Received 2e58495c @ 2785 and match found  
                2815: Portout: Serialization of 96ab582d completed.
Received 96ab582d @ 2835 and match found  
                2875: -- PORTIN COMPLETE -- Portin: Address = 1, Payload = 86bc380d, Valid = 0
                2885: FIFO Read: Data = 2e58495c, Read Ptr =  4, Count =  1
                2885: FIFO Write: Data = 86bc380d, Write Ptr =  4, Count =  4
                2895: Switch Routing: From Input           0 to Address 3, Data = 557845aa, Latched Data = 2e58495c, Valido_n = 1
                2915: Portout: Din = 557845aa
                2935: FIFO Read: Data = 96ab582d, Read Ptr =  4, Count =  1
                2945: Switch Routing: From Input           1 to Address 2, Data = cb203e96, Latched Data = 96ab582d, Valido_n = 1
                2965: Testbench: Sending packet from 2 to 1, Data = 11844923
                2965: Portout: Din = cb203e96
                3005: -- PORTIN COMPLETE -- Portin: Address = 3, Payload = 359fdd6b, Valid = 0
                3015: FIFO Write: Data = 359fdd6b, Write Ptr =  5, Count =  0
                3055: -- PORTIN COMPLETE -- Portin: Address = 2, Payload = 81174a02, Valid = 0
Sending packet @ 3065 [sa=2] [da=1] data=11844923
                3065: FIFO Write: Data = 81174a02, Write Ptr =  5, Count =  0
                3095: Testbench: Sending packet from 0 to 3, Data = e5730aca
Sending packet @ 3095 [sa=0] [da=3] data=e5730aca
                3135: -- PORTIN COMPLETE -- Portin: Address = 0, Payload = 0effe91d, Valid = 0
                3145: Testbench: Sending packet from 1 to 2, Data = 7968bdf2
                3145: FIFO Write: Data = 0effe91d, Write Ptr =  5, Count =  1
                3225: Testbench: Sending packet from 3 to 0, Data = 20c4b341
Sending packet @ 3225 [sa=3] [da=0] data=20c4b341
                3235: Portout: Serialization of 557845aa completed.
Sending packet @ 3245 [sa=1] [da=2] data=7968bdf2
Received 557845aa @ 3255 and match found  
                3285: Portout: Serialization of cb203e96 completed.
Received cb203e96 @ 3305 and match found  
                3355: FIFO Read: Data = 557845aa, Read Ptr =  5, Count =  1
                3365: Switch Routing: From Input           0 to Address 3, Data = 359fdd6b, Latched Data = 557845aa, Valido_n = 1
                3385: Portout: Din = 359fdd6b
                3405: FIFO Read: Data = cb203e96, Read Ptr =  5, Count =  1
                3415: Switch Routing: From Input           1 to Address 2, Data = 81174a02, Latched Data = cb203e96, Valido_n = 1
                3435: Portout: Din = 81174a02
                3445: -- PORTIN COMPLETE -- Portin: Address = 1, Payload = 11844923, Valid = 0
                3455: FIFO Write: Data = 11844923, Write Ptr =  5, Count =  5
                3475: -- PORTIN COMPLETE -- Portin: Address = 3, Payload = e5730aca, Valid = 0
                3485: FIFO Write: Data = e5730aca, Write Ptr =  6, Count =  0
                3535: Testbench: Sending packet from 2 to 1, Data = 3c20f378
Sending packet @ 3535 [sa=2] [da=1] data=3c20f378
                3565: Testbench: Sending packet from 0 to 3, Data = 75c50deb
                3605: -- PORTIN COMPLETE -- Portin: Address = 0, Payload = 20c4b341, Valid = 0
                3615: FIFO Write: Data = 20c4b341, Write Ptr =  6, Count =  2
Sending packet @ 3625 [sa=0] [da=3] data=75c50deb
                3625: -- PORTIN COMPLETE -- Portin: Address = 2, Payload = 7968bdf2, Valid = 0
                3635: FIFO Write: Data = 7968bdf2, Write Ptr =  6, Count =  0
                3695: Testbench: Sending packet from 3 to 0, Data = 634bf9c6
                3705: Portout: Serialization of 359fdd6b completed.
                3715: Testbench: Sending packet from 1 to 2, Data = de7502bc
Received 359fdd6b @ 3725 and match found  
Sending packet @ 3755 [sa=3] [da=0] data=634bf9c6
                3755: Portout: Serialization of 81174a02 completed.
Received 81174a02 @ 3775 and match found  
                3825: FIFO Read: Data = 359fdd6b, Read Ptr =  6, Count =  1
                3835: Switch Routing: From Input           0 to Address 3, Data = e5730aca, Latched Data = 359fdd6b, Valido_n = 1
Sending packet @ 3855 [sa=1] [da=2] data=de7502bc
                3855: Portout: Din = e5730aca
                3915: -- PORTIN COMPLETE -- Portin: Address = 1, Payload = 3c20f378, Valid = 0
                3925: FIFO Write: Data = 3c20f378, Write Ptr =  6, Count =  6
                3975: FIFO Read: Data = 81174a02, Read Ptr =  6, Count =  1
                3985: Switch Routing: From Input           1 to Address 2, Data = 7968bdf2, Latched Data = 81174a02, Valido_n = 1
                4005: Testbench: Sending packet from 2 to 1, Data = 85d79a0b
Sending packet @ 4005 [sa=2] [da=1] data=85d79a0b
                4005: -- PORTIN COMPLETE -- Portin: Address = 3, Payload = 75c50deb, Valid = 0
                4005: Portout: Din = 7968bdf2
                4015: FIFO Write: Data = 75c50deb, Write Ptr =  7, Count =  0
                4095: Testbench: Sending packet from 0 to 3, Data = 42f24185
                4135: -- PORTIN COMPLETE -- Portin: Address = 0, Payload = 634bf9c6, Valid = 0
                4145: FIFO Write: Data = 634bf9c6, Write Ptr =  7, Count =  3
                4175: Portout: Serialization of e5730aca completed.
Received e5730aca @ 4195 and match found  
                4225: Testbench: Sending packet from 3 to 0, Data = 9dcc603b
                4235: -- PORTIN COMPLETE -- Portin: Address = 2, Payload = de7502bc, Valid = 0
Sending packet @ 4245 [sa=0] [da=3] data=42f24185
                4245: FIFO Write: Data = de7502bc, Write Ptr =  7, Count =  0
                4295: FIFO Read: Data = f4007ae8, Read Ptr =  4, Count =  4
                4305: Switch Routing: From Input           3 to Address 0, Data = c03b2280, Latched Data = f4007ae8, Valido_n = 1
                4325: Testbench: Sending packet from 1 to 2, Data = bf23327e
                4325: Portout: Din = c03b2280
                4325: Portout: Serialization of 7968bdf2 completed.
Sending packet @ 4335 [sa=1] [da=2] data=bf23327e
Received 7968bdf2 @ 4345 and match found  
Sending packet @ 4365 [sa=3] [da=0] data=9dcc603b
                4385: -- PORTIN COMPLETE -- Portin: Address = 1, Payload = 85d79a0b, Valid = 0
                4395: FIFO Write: Data = 85d79a0b, Write Ptr =  7, Count =  7
                4475: Testbench: Sending packet from 2 to 1, Data = 78d99bf1
Sending packet @ 4485 [sa=2] [da=1] data=78d99bf1
                4585: FIFO Read: Data = 7968bdf2, Read Ptr =  7, Count =  1
                4595: Switch Routing: From Input           1 to Address 2, Data = de7502bc, Latched Data = 7968bdf2, Valido_n = 1
                4615: Portout: Din = de7502bc
                4625: -- PORTIN COMPLETE -- Portin: Address = 3, Payload = 42f24185, Valid = 0
                4625: FIFO Read: Data = c03b2280, Read Ptr =  5, Count =  3
                4635: Switch Routing: From Input           3 to Address 0, Data = 0effe91d, Latched Data = c03b2280, Valido_n = 1
                4635: FIFO Write: Data = 42f24185, Write Ptr =  8, Count =  1
                4645: Portout: Serialization of c03b2280 completed.
                4655: Portout: Din = 0effe91d
Received c03b2280 @ 4665 and match found  
                4715: Testbench: Sending packet from 0 to 3, Data = 31230762
                4715: -- PORTIN COMPLETE -- Portin: Address = 2, Payload = bf23327e, Valid = 0
                4725: FIFO Write: Data = bf23327e, Write Ptr =  8, Count =  0
                4745: -- PORTIN COMPLETE -- Portin: Address = 0, Payload = 9dcc603b, Valid = 0
                4755: FIFO Write: Data = 9dcc603b, Write Ptr =  8, Count =  2
Sending packet @ 4795 [sa=0] [da=3] data=31230762
                4805: Testbench: Sending packet from 1 to 2, Data = 4fa1559f
                4835: Testbench: Sending packet from 3 to 0, Data = 7c6da9f8
Sending packet @ 4835 [sa=3] [da=0] data=7c6da9f8
                4865: -- PORTIN COMPLETE -- Portin: Address = 1, Payload = 78d99bf1, Valid = 0
                4875: FIFO Write: Data = 78d99bf1, Write Ptr =  8, Count =  8
                4935: Portout: Serialization of de7502bc completed.
Sending packet @ 4955 [sa=1] [da=2] data=4fa1559f
                4955: Testbench: Sending packet from 2 to 1, Data = cfc4569f
Sending packet @ 4955 [sa=2] [da=1] data=cfc4569f
Received de7502bc @ 4955 and match found  
                4955: FIFO Read: Data = 0effe91d, Read Ptr =  6, Count =  3
                4965: Switch Routing: From Input           3 to Address 0, Data = 20c4b341, Latched Data = 0effe91d, Valido_n = 1
                4975: Portout: Serialization of 0effe91d completed.
                4985: Portout: Din = 20c4b341
Received 0effe91d @ 4995 and match found  
                5065: FIFO Read: Data = de7502bc, Read Ptr =  8, Count =  1
                5075: Switch Routing: From Input           1 to Address 2, Data = bf23327e, Latched Data = de7502bc, Valido_n = 1
                5095: Portout: Din = bf23327e
                5175: -- PORTIN COMPLETE -- Portin: Address = 3, Payload = 31230762, Valid = 0
                5185: FIFO Write: Data = 31230762, Write Ptr =  9, Count =  2
                5215: -- PORTIN COMPLETE -- Portin: Address = 0, Payload = 7c6da9f8, Valid = 0
                5225: FIFO Write: Data = 7c6da9f8, Write Ptr =  9, Count =  2
                5285: FIFO Read: Data = 20c4b341, Read Ptr =  7, Count =  3
                5295: Switch Routing: From Input           3 to Address 0, Data = 634bf9c6, Latched Data = 20c4b341, Valido_n = 1
                5305: Portout: Serialization of 20c4b341 completed.
                5315: Portout: Din = 634bf9c6
Received 20c4b341 @ 5325 and match found  
                5335: -- PORTIN COMPLETE -- Portin: Address = 2, Payload = 4fa1559f, Valid = 0
                5335: -- PORTIN COMPLETE -- Portin: Address = 1, Payload = cfc4569f, Valid = 0
                5345: FIFO Write: Data = 4fa1559f, Write Ptr =  9, Count =  0
                5345: FIFO Write: Data = cfc4569f, Write Ptr =  9, Count =  9
                5415: Portout: Serialization of bf23327e completed.
Received bf23327e @ 5435 and match found  
                5535: FIFO Read: Data = 00000000, Read Ptr =  0, Count = 10
                5545: Switch Routing: From Input           2 to Address 1, Data = 06b97b0d, Latched Data = 00000000, Valido_n = 1
                5565: Portout: Din = 06b97b0d
                5615: FIFO Read: Data = 634bf9c6, Read Ptr =  8, Count =  2
                5625: Switch Routing: From Input           3 to Address 0, Data = 9dcc603b, Latched Data = 634bf9c6, Valido_n = 1
                5635: Portout: Serialization of 634bf9c6 completed.
                5645: Portout: Din = 9dcc603b
Received 634bf9c6 @ 5655 and match found  
                5865: FIFO Read: Data = 06b97b0d, Read Ptr =  1, Count =  9
                5875: Switch Routing: From Input           2 to Address 1, Data = 7cfde9f9, Latched Data = 06b97b0d, Valido_n = 1
                5885: Portout: Serialization of 06b97b0d completed.
                5895: Portout: Din = 7cfde9f9
Received 06b97b0d @ 5905 and match found  
                5945: FIFO Read: Data = 9dcc603b, Read Ptr =  9, Count =  1
                5955: Switch Routing: From Input           3 to Address 0, Data = 7c6da9f8, Latched Data = 9dcc603b, Valido_n = 1
                5965: Portout: Serialization of 9dcc603b completed.
                5975: Portout: Din = 7c6da9f8
Received 9dcc603b @ 5985 and match found  
                6195: FIFO Read: Data = 7cfde9f9, Read Ptr =  2, Count =  8
                6205: Switch Routing: From Input           2 to Address 1, Data = 8932d612, Latched Data = 7cfde9f9, Valido_n = 1
                6215: Portout: Serialization of 7cfde9f9 completed.
                6225: Portout: Din = 8932d612
Received 7cfde9f9 @ 6235 and match found  
                6295: Portout: Serialization of 7c6da9f8 completed.
Received 7c6da9f8 @ 6315 and match found  
                6525: FIFO Read: Data = 8932d612, Read Ptr =  3, Count =  7
                6535: Switch Routing: From Input           2 to Address 1, Data = b1ef6263, Latched Data = 8932d612, Valido_n = 1
                6545: Portout: Serialization of 8932d612 completed.
                6555: Portout: Din = b1ef6263
Received 8932d612 @ 6565 and match found  
                6855: FIFO Read: Data = b1ef6263, Read Ptr =  4, Count =  6
                6865: Switch Routing: From Input           2 to Address 1, Data = 86bc380d, Latched Data = b1ef6263, Valido_n = 1
                6875: Portout: Serialization of b1ef6263 completed.
                6885: Portout: Din = 86bc380d
Received b1ef6263 @ 6895 and match found  
                6915: FIFO Read: Data = e5730aca, Read Ptr =  7, Count =  3
                6925: Switch Routing: From Input           0 to Address 3, Data = 75c50deb, Latched Data = e5730aca, Valido_n = 1
                6945: Portout: Din = 75c50deb
                7185: FIFO Read: Data = 86bc380d, Read Ptr =  5, Count =  5
                7195: Switch Routing: From Input           2 to Address 1, Data = 11844923, Latched Data = 86bc380d, Valido_n = 1
                7205: Portout: Serialization of 86bc380d completed.
                7215: Portout: Din = 11844923
Received 86bc380d @ 7225 and match found  
                7245: FIFO Read: Data = 75c50deb, Read Ptr =  8, Count =  2
                7255: Switch Routing: From Input           0 to Address 3, Data = 42f24185, Latched Data = 75c50deb, Valido_n = 1
                7265: Portout: Serialization of 75c50deb completed.
                7275: Portout: Din = 42f24185
Received 75c50deb @ 7285 and match found  
                7515: FIFO Read: Data = 11844923, Read Ptr =  6, Count =  4
                7525: Switch Routing: From Input           2 to Address 1, Data = 3c20f378, Latched Data = 11844923, Valido_n = 1
                7535: Portout: Serialization of 11844923 completed.
                7545: Portout: Din = 3c20f378
Received 11844923 @ 7555 and match found  
                7575: FIFO Read: Data = 42f24185, Read Ptr =  9, Count =  1
                7585: Switch Routing: From Input           0 to Address 3, Data = 31230762, Latched Data = 42f24185, Valido_n = 1
                7595: Portout: Serialization of 42f24185 completed.
                7605: Portout: Din = 31230762
Received 42f24185 @ 7615 and match found  
                7845: FIFO Read: Data = 3c20f378, Read Ptr =  7, Count =  3
                7855: Switch Routing: From Input           2 to Address 1, Data = 85d79a0b, Latched Data = 3c20f378, Valido_n = 1
                7865: Portout: Serialization of 3c20f378 completed.
                7875: Portout: Din = 85d79a0b
Received 3c20f378 @ 7885 and match found  
                7925: Portout: Serialization of 31230762 completed.
Received 31230762 @ 7945 and match found  
                8175: FIFO Read: Data = 85d79a0b, Read Ptr =  8, Count =  2
                8185: Switch Routing: From Input           2 to Address 1, Data = 78d99bf1, Latched Data = 85d79a0b, Valido_n = 1
                8195: Portout: Serialization of 85d79a0b completed.
                8205: Portout: Din = 78d99bf1
Received 85d79a0b @ 8215 and match found  
                8505: FIFO Read: Data = 78d99bf1, Read Ptr =  9, Count =  1
                8515: Switch Routing: From Input           2 to Address 1, Data = cfc4569f, Latched Data = 78d99bf1, Valido_n = 1
                8525: Portout: Serialization of 78d99bf1 completed.
                8535: Portout: Din = cfc4569f
Received 78d99bf1 @ 8545 and match found  
                8855: Portout: Serialization of cfc4569f completed.
Received cfc4569f @ 8875 and match found  
